<?xml version="1.0" encoding="UTF-8" standalone="no"?>
<!-- Generator: Adobe Illustrator 19.0.0, SVG Export Plug-In . SVG Version: 6.00 Build 0)  -->

<svg
   xmlns:dc="http://purl.org/dc/elements/1.1/"
   xmlns:cc="http://creativecommons.org/ns#"
   xmlns:rdf="http://www.w3.org/1999/02/22-rdf-syntax-ns#"
   xmlns:svg="http://www.w3.org/2000/svg"
   xmlns="http://www.w3.org/2000/svg"
   xmlns:sodipodi="http://sodipodi.sourceforge.net/DTD/sodipodi-0.dtd"
   xmlns:inkscape="http://www.inkscape.org/namespaces/inkscape"
   version="1.1"
   id="Layer_1"
   x="0px"
   y="0px"
   viewBox="0 0 511.992 511.992"
   style="enable-background:new 0 0 511.992 511.992;"
   xml:space="preserve"
   inkscape:version="0.91 r13725"
   sodipodi:docname="lib-e-00.svg"><metadata
     id="metadata85"><rdf:RDF><cc:Work
         rdf:about=""><dc:format>image/svg+xml</dc:format><dc:type
           rdf:resource="http://purl.org/dc/dcmitype/StillImage" /><dc:title></dc:title></cc:Work></rdf:RDF></metadata><defs
     id="defs83" /><sodipodi:namedview
     pagecolor="#ffffff"
     bordercolor="#666666"
     borderopacity="1"
     objecttolerance="10"
     gridtolerance="10"
     guidetolerance="10"
     inkscape:pageopacity="0"
     inkscape:pageshadow="2"
     inkscape:window-width="1366"
     inkscape:window-height="711"
     id="namedview81"
     showgrid="false"
     inkscape:zoom="0.58566827"
     inkscape:cx="254.28855"
     inkscape:cy="255.996"
     inkscape:window-x="0"
     inkscape:window-y="27"
     inkscape:window-maximized="1"
     inkscape:current-layer="Layer_1" /><g
     transform="translate(-39.152196,-0.00499725)"
     id="g7109"><rect
       id="rect3"
       height="71.165001"
       width="33.390999"
       style="fill:#575759"
       y="440.832"
       x="102.877" /><rect
       id="rect5"
       height="71.165001"
       width="33.390999"
       style="fill:#474748"
       y="440.832"
       x="375.728" /><rect
       id="rect7"
       height="283.82599"
       width="397.991"
       style="fill:#69351d"
       y="16.695999"
       x="57.007999" /><rect
       id="rect9"
       height="141.91299"
       width="397.991"
       style="fill:#c17644"
       y="298.91901"
       x="57.007999" /><rect
       id="rect11"
       height="283.82599"
       width="198.99001"
       style="fill:#542c19"
       y="16.695999"
       x="255.998" /><rect
       id="rect13"
       height="93.830002"
       width="23.253"
       style="fill:#a7dc5e"
       y="194.07001"
       x="87.282997" /><rect
       id="rect15"
       height="88.498001"
       width="23.253"
       style="fill:#f1ce30"
       y="199.40199"
       x="110.535" /><rect
       id="rect17"
       height="93.830002"
       width="23.253"
       style="fill:#b90b27"
       y="194.07001"
       x="133.786" /><rect
       id="rect19"
       height="93.828003"
       width="23.252001"
       style="fill:#79d5de"
       transform="matrix(-0.9449,0.3273,-0.3273,-0.9449,433.4335,396.2331)"
       y="187.673"
       x="171.75" /><rect
       id="rect21"
       height="93.830002"
       width="23.253"
       style="fill:#97c655"
       y="52.736"
       x="401.80701" /><rect
       id="rect23"
       height="88.498001"
       width="23.253"
       style="fill:#c74b21"
       y="58.067001"
       x="378.556" /><rect
       id="rect25"
       height="93.830002"
       width="23.253"
       style="fill:#d9ba2c"
       y="52.736"
       x="355.30399" /><rect
       id="rect27"
       height="93.828003"
       width="23.252001"
       style="fill:#982959"
       transform="matrix(0.9449,0.3273,-0.3273,0.9449,48.6465,-102.538)"
       y="46.351002"
       x="317.34799" /><rect
       id="rect29"
       height="141.91299"
       width="198.99001"
       style="fill:#9a5f38"
       y="298.91901"
       x="255.998" /><g
       id="g31-3"><path
         inkscape:connector-curvature="0"
         id="path33"
         d="m 40.306,0 0,457.531 431.383,0 L 471.689,0 40.306,0 Z m 397.993,33.391 0,107.989 -364.602,0 0,-107.989 364.602,0 z m 0,141.38 0,107.989 -364.602,0 0,-107.989 364.602,0 z M 73.697,424.14 l 0,-107.989 364.601,0 0,107.989 -364.601,0 z"
         style="fill:#954927" /><rect
         id="rect35"
         height="134.39999"
         width="33.390999"
         style="fill:#954927"
         y="302.336"
         x="239.30299" /></g><g
       id="g37-5"><rect
         id="rect39"
         height="134.39999"
         width="16.695999"
         style="fill:#783c21"
         y="302.336"
         x="255.998" /><polygon
         id="polygon41"
         points="255.998,457.531 471.691,457.531 471.691,0 255.998,0 255.998,33.391 438.299,33.391 438.299,141.38 255.998,141.38 255.998,174.771 438.299,174.771 438.299,282.76 255.998,282.76 255.998,316.151 438.299,316.151 438.299,424.14 255.998,424.14 "
         style="fill:#783c21" /></g><circle
       id="circle43"
       r="13.357"
       cy="370.677"
       cx="198.12"
       style="fill:#2a2a2a" /><circle
       id="circle45"
       r="13.357"
       cy="370.677"
       cx="313.87701" /><g
       id="g47-6" /><g
       id="g49-2" /><g
       id="g51" /><g
       id="g53" /><g
       id="g55" /><g
       id="g57" /><g
       id="g59" /><g
       id="g61" /><g
       id="g63" /><g
       id="g65" /><g
       id="g67" /><g
       id="g69" /><g
       id="g71" /><g
       id="g73" /><g
       id="g75" /></g><g
     transform="matrix(0.23421021,0,0,0.23421021,59.555938,265.51803)"
     id="g7364"><g
       transform="translate(30.799343,0)"
       id="g8118"><rect
         style="opacity:1;fill:#959cae;fill-opacity:1;stroke:#000000;stroke-width:10;stroke-linejoin:round;stroke-miterlimit:4;stroke-dasharray:none;stroke-opacity:1"
         id="rect8080"
         width="139.41862"
         height="593.6535"
         x="939.95135"
         y="-517.22198"
         ry="2.73349" /><g
         transform="matrix(2.3734922,0,0,2.3734922,308.02402,-736.95671)"
         id="g7173"><path
           inkscape:connector-curvature="0"
           id="path7152"
           d="m 255.99023,64.728516 c -1.34936,-0.05144 -2.80229,0.128134 -4.48828,0.5 -1.68598,0.371865 -3.60503,0.936025 -5.88672,1.654296 -8.90039,2.801851 -34.06975,11.273018 -57.7832,19.365235 -23.71345,8.092217 -45.97101,15.805483 -49.04492,17.089843 -1.91271,0.79919 -3.39352,1.48913 -4.53906,2.26172 -0.57277,0.38629 -1.0613,0.79324 -1.47852,1.24414 -0.41722,0.4509 -0.763,0.94675 -1.04883,1.50977 -0.57166,1.12603 -0.90463,2.52329 -1.0957,4.38281 -0.19107,1.85952 -0.24037,4.18126 -0.24414,7.15429 -0.004,3.10367 0.11641,6.18176 0.35156,9.21094 0.23516,3.02918 0.58434,6.00958 1.04297,8.91797 0.45863,2.9084 1.02501,5.74502 1.69141,8.48633 0.66639,2.74131 1.43256,5.38809 2.29101,7.91602 0.85845,2.52792 1.8109,4.93683 2.84571,7.20507 1.0348,2.26825 2.1522,4.39517 3.34765,6.35743 1.19546,1.96225 2.4682,3.75916 3.8086,5.36914 1.34039,1.60997 2.74912,3.03274 4.21875,4.24414 1.62718,1.34126 3.88873,2.93111 6.47851,4.59765 2.58979,1.66654 5.50697,3.40884 8.44922,5.0586 2.94225,1.64975 5.90919,3.20714 8.59375,4.49804 2.68456,1.29091 5.08757,2.31626 6.9043,2.90625 1.83629,0.59636 4.18472,0.92462 6.82617,1.01172 2.64145,0.0871 5.57575,-0.0667 8.58789,-0.43554 3.01214,-0.36887 6.10047,-0.95308 9.04883,-1.72461 2.94836,-0.77154 5.75691,-1.73065 8.20703,-2.85157 3.02215,-1.38358 6.18915,-3.02421 9.42578,-4.85937 3.23663,-1.83517 6.54203,-3.86467 9.83984,-6.02539 3.29782,-2.16072 6.58922,-4.45226 9.79493,-6.8125 3.2057,-2.36025 6.3268,-4.78892 9.28711,-7.22266 2.9603,-2.43374 5.75871,-4.8727 8.32031,-7.2539 2.5616,-2.38121 4.88688,-4.70557 6.89648,-6.90821 2.00961,-2.20263 3.7035,-4.2836 5.00781,-6.18164 1.30432,-1.89803 2.21834,-3.61267 2.66407,-5.08008 0.44537,-1.46627 0.9648,-5.82244 1.44336,-11.6582 0.47855,-5.83576 0.91622,-13.1511 1.19726,-20.53906 L 277.97266,81.25 270.81445,74.357422 c -3.48986,-3.359908 -6.07238,-5.723718 -8.34375,-7.269531 -1.13568,-0.772907 -2.19273,-1.3408 -3.24804,-1.726563 -1.05532,-0.385763 -2.10797,-0.589939 -3.23243,-0.632812 z"
           style="opacity:1;fill:#a19aac;fill-opacity:1;stroke:#000000;stroke-width:2;stroke-linejoin:round;stroke-miterlimit:4;stroke-dasharray:none;stroke-opacity:1" /><path
           inkscape:connector-curvature="0"
           id="path7150"
           d="m 335.89258,64.458984 c -0.11949,-0.0038 -0.2122,0.0019 -0.27735,0.01758 -0.96067,0.23108 -2.71566,1.216386 -4.76757,2.617188 -2.05192,1.400802 -4.40075,3.217098 -6.55274,5.111328 l -7.82226,6.886719 0.0156,26.267581 c 0,7.22365 0.20702,14.52657 0.53906,20.4746 0.33205,5.94804 0.78911,10.54119 1.28907,12.3418 0.2634,0.94871 0.66793,1.96554 1.20117,3.03906 0.53324,1.07353 1.19484,2.20283 1.97265,3.38086 1.55563,2.35607 3.57472,4.90248 5.95704,7.55469 2.38231,2.65221 5.12788,5.41141 8.13476,8.19727 3.00688,2.78585 6.27577,5.59847 9.70508,8.35546 3.42931,2.757 7.02031,5.45782 10.66992,8.02344 3.64962,2.56563 7.3576,4.99528 11.02539,7.20703 3.66779,2.21176 7.29351,4.20501 10.77735,5.90039 3.48383,1.69539 6.82607,3.09287 9.92382,4.10938 1.3371,0.43876 2.72393,0.79525 4.15235,1.07031 1.42841,0.27507 2.89776,0.4685 4.40039,0.58203 3.00524,0.22707 6.14234,0.13264 9.34179,-0.27343 3.19946,-0.40608 6.46192,-1.12263 9.71876,-2.14454 3.25683,-1.0219 6.50816,-2.34834 9.68554,-3.96875 l -0.006,0 c 3.39437,-1.73107 6.63829,-3.63038 9.66211,-5.63867 3.02382,-2.00829 5.82834,-4.12632 8.34375,-6.29297 2.51541,-2.16664 4.74219,-4.38175 6.61133,-6.58789 1.86914,-2.20613 3.37984,-4.40253 4.46484,-6.52929 0.9717,-1.90468 1.88861,-4.14822 2.73829,-6.62696 0.84967,-2.47873 1.63224,-5.19241 2.33593,-8.03711 0.7037,-2.8447 1.32758,-5.8197 1.86133,-8.82226 0.53376,-3.00256 0.97655,-6.03206 1.31641,-8.98438 0.33985,-2.95232 0.57722,-5.82751 0.69922,-8.52148 0.12199,-2.69398 0.12959,-5.20802 0.01,-7.43555 -0.11983,-2.22753 -0.36634,-4.16968 -0.75195,-5.72265 -0.38561,-1.55298 -0.91059,-2.7164 -1.58594,-3.38672 -0.45199,-0.44863 -2.62355,-1.43987 -6.0918,-2.83203 -3.46825,-1.39217 -8.23286,-3.18517 -13.87304,-5.23633 -11.28038,-4.102334 -26.06073,-9.238366 -40.96289,-14.269532 -14.90217,-5.031166 -29.92598,-9.956867 -41.69532,-13.640625 -5.88467,-1.841879 -10.95604,-3.37294 -14.79101,-4.451172 -3.83498,-1.078231 -6.43405,-1.704321 -7.375,-1.734375 z"
           style="opacity:1;fill:#a19aac;fill-opacity:1;stroke:#000000;stroke-width:2;stroke-linejoin:round;stroke-miterlimit:4;stroke-dasharray:none;stroke-opacity:1" /><path
           inkscape:connector-curvature="0"
           id="path7038"
           d="m 259.13477,48.625 c -3.4803,0 -102.94673,33.120655 -130.94141,43.601562 -14.00144,5.241986 -15.49364,8.258368 -15.30469,30.949218 0.10329,12.40099 1.13303,21.83534 3.1211,28.57422 8.64977,29.31977 27.8006,49.91921 52.9375,56.9375 24.32229,6.79085 69.30256,-7.93481 104.76562,-34.29688 16.86276,-12.53523 20.59979,-14.53178 23.35352,-12.48632 38.57613,28.65293 64.12799,40.32574 97.04492,44.33789 25.62766,3.12367 41.88848,-1.75528 56.76953,-17.03321 15.20267,-15.60783 24.54572,-41.36864 25.46094,-69.80078 -0.003,-0.16064 0.003,-0.34589 0.0176,-0.54687 0.0242,-0.85199 0.0653,-1.69819 0.0742,-2.55469 0.19703,-18.964886 -1.04474,-21.797247 -11.07617,-25.27539 -29.84967,-10.349611 -127.6405,-41.348996 -132.49414,-42 -7.37983,-0.989862 -9.60407,0.285292 -25.25781,14.478516 C 294.33386,75.543188 295.98063,75.763991 276.04102,59.267578 268.09811,52.696215 261.63009,48.625 259.13477,48.625 Z m 76.75781,15.833984 c 7.52762,0.240432 121.17315,38.575026 124.78906,42.164066 5.40281,5.36261 1.1505,42.29974 -6.62305,57.53711 -4.34002,8.50704 -15.50457,18.12451 -29.08203,25.04882 l 0.006,0 c -12.70952,6.48162 -26.60203,8.2445 -37.29883,4.73438 -24.78202,-8.13205 -65.15275,-40.58824 -69.36718,-55.76758 -0.99991,-3.60123 -1.82813,-18.36909 -1.82813,-32.8164 l -0.0156,-26.267583 7.82226,-6.886719 c 4.30397,-3.78846 9.39897,-7.266357 11.32031,-7.728516 0.0652,-0.01567 0.15786,-0.02139 0.27735,-0.01758 z m -79.90235,0.269532 c 4.49782,0.171492 7.8445,2.909091 14.82422,9.628906 l 7.15821,6.892578 -1.02149,26.86719 c -0.56208,14.77593 -1.74988,29.26471 -2.64062,32.19726 -3.56583,11.73925 -37.05915,39.27511 -61.23633,50.34375 -9.80046,4.48365 -25.32473,6.38542 -32.66992,4 -7.26691,-2.35999 -23.91706,-11.6955 -30.42578,-17.06054 -11.75704,-9.69114 -19.62985,-32.87774 -19.59766,-57.70704 0.0151,-11.89216 0.7554,-13.35599 8.40625,-16.55273 6.14783,-2.56872 89.02733,-30.851376 106.82812,-36.455078 4.56338,-1.436542 7.67628,-2.257171 10.375,-2.154296 z"
           style="fill:#ffad01;fill-opacity:1;stroke:#000000;stroke-width:2;stroke-miterlimit:4;stroke-dasharray:none;stroke-opacity:1" /><g
           id="g7160"><circle
             style="opacity:1;fill:#000080;fill-opacity:1;stroke:#000000;stroke-width:1.97056246;stroke-linejoin:round;stroke-miterlimit:4;stroke-dasharray:none;stroke-opacity:1"
             id="path7154"
             cx="199.59322"
             cy="137.10307"
             r="45.487259" /><circle
             style="opacity:1;fill:#000000;fill-opacity:1;stroke:#000000;stroke-width:2;stroke-linejoin:round;stroke-miterlimit:4;stroke-dasharray:none;stroke-opacity:1"
             id="path7156"
             cx="199.24609"
             cy="137.45016"
             r="40.265762" /><circle
             style="opacity:1;fill:#ffffff;fill-opacity:1;stroke:#000000;stroke-width:2;stroke-linejoin:round;stroke-miterlimit:4;stroke-dasharray:none;stroke-opacity:1"
             id="path7158"
             cx="212.43661"
             cy="120.78848"
             r="18.050169" /></g><g
           transform="translate(196,0)"
           id="g7165"><circle
             r="45.487259"
             cy="137.10307"
             cx="199.59322"
             id="circle7167"
             style="opacity:1;fill:#000080;fill-opacity:1;stroke:#000000;stroke-width:1.97056246;stroke-linejoin:round;stroke-miterlimit:4;stroke-dasharray:none;stroke-opacity:1" /><circle
             r="40.265762"
             cy="137.45016"
             cx="199.24609"
             id="circle7169"
             style="opacity:1;fill:#000000;fill-opacity:1;stroke:#000000;stroke-width:2;stroke-linejoin:round;stroke-miterlimit:4;stroke-dasharray:none;stroke-opacity:1" /><circle
             r="18.050169"
             cy="120.78848"
             cx="212.43661"
             id="circle7171"
             style="opacity:1;fill:#ffffff;fill-opacity:1;stroke:#000000;stroke-width:2;stroke-linejoin:round;stroke-miterlimit:4;stroke-dasharray:none;stroke-opacity:1" /></g></g><rect
         style="opacity:1;fill:#424b52;fill-opacity:1;stroke:#000000;stroke-width:10;stroke-linejoin:round;stroke-miterlimit:4;stroke-dasharray:none;stroke-opacity:1"
         id="rect8082"
         width="211.37662"
         height="143.916"
         x="901.47498"
         y="-251.87688"
         ry="2.73349" /><rect
         style="opacity:1;fill:#424b52;fill-opacity:1;stroke:#000000;stroke-width:8.02993298;stroke-linejoin:round;stroke-miterlimit:4;stroke-dasharray:none;stroke-opacity:1"
         id="rect8084"
         width="394.06152"
         height="29.786568"
         x="793.93494"
         y="-415.43912"
         ry="1.810418"
         transform="matrix(0.96189385,-0.27342314,0.54455967,0.8387221,0,0)" /><rect
         transform="matrix(-0.96189385,-0.27342314,-0.54455967,0.8387221,0,0)"
         ry="1.810418"
         y="-989.99139"
         x="-968.50238"
         height="29.786568"
         width="394.06152"
         id="rect8086"
         style="opacity:1;fill:#424b52;fill-opacity:1;stroke:#000000;stroke-width:8.02993298;stroke-linejoin:round;stroke-miterlimit:4;stroke-dasharray:none;stroke-opacity:1" /></g><g
       transform="translate(30.799343,0)"
       id="g8136"><rect
         style="opacity:1;fill:#ffad01;fill-opacity:1;stroke:#000000;stroke-width:7.86852551;stroke-linejoin:round;stroke-miterlimit:4;stroke-dasharray:none;stroke-opacity:1"
         id="rect7047"
         width="917.02319"
         height="843.62775"
         x="575.64197"
         y="34.534637"
         ry="3.7382298" /><rect
         style="opacity:1;fill:#959cae;fill-opacity:1;stroke:#000000;stroke-width:7.86852551;stroke-linejoin:round;stroke-miterlimit:4;stroke-dasharray:none;stroke-opacity:1"
         id="rect7049"
         width="866.54492"
         height="254.24397"
         x="600.88116"
         y="57.64772"
         ry="3.7382326" /><g
         transform="matrix(0.8222462,0,0,0.75298228,540.01598,-549.19895)"
         id="g7729"><path
           inkscape:connector-curvature="0"
           id="rect7606"
           d="m 183.625,885.40625 0,166.95505 211.47852,0 0,-166.95505 -211.47852,0 z m 28.62109,35.55273 154.23633,0 0,23.84961 -154.23633,0 0,-23.84961 z m 0,36 154.23633,0 0,23.84961 -154.23633,0 0,-23.84961 z m 0,36 154.23633,0 0,23.84962 -154.23633,0 0,-23.84962 z"
           style="opacity:1;fill:#1a1a1a;fill-opacity:1;stroke:#000000;stroke-width:0;stroke-linejoin:round;stroke-miterlimit:4;stroke-dasharray:none;stroke-opacity:1" /><path
           inkscape:connector-curvature="0"
           style="opacity:1;fill:#1a1a1a;fill-opacity:1;stroke:#000000;stroke-width:0;stroke-linejoin:round;stroke-miterlimit:4;stroke-dasharray:none;stroke-opacity:1"
           d="m 369.625,885.40625 0,166.95505 211.47852,0 0,-166.95505 -211.47852,0 z m 28.62109,35.55273 154.23633,0 0,23.84961 -154.23633,0 0,-23.84961 z m 0,36 154.23633,0 0,23.84961 -154.23633,0 0,-23.84961 z m 0,36 154.23633,0 0,23.84962 -154.23633,0 0,-23.84962 z"
           id="path7727" /></g><g
         id="g7821"
         transform="matrix(0.68991251,0,0,0.44566556,959.91452,-95.80561)"><rect
           ry="0"
           y="391.24811"
           x="179.89499"
           height="472.22437"
           width="400.26636"
           id="rect7767"
           style="opacity:1;fill:#1a1a1a;fill-opacity:1;stroke:#000000;stroke-width:0;stroke-linejoin:round;stroke-miterlimit:4;stroke-dasharray:none;stroke-opacity:1" /><rect
           style="opacity:1;fill:#ffffff;fill-opacity:1;stroke:#000000;stroke-width:0;stroke-linejoin:round;stroke-miterlimit:4;stroke-dasharray:none;stroke-opacity:1"
           id="rect7779"
           width="195.6358"
           height="8.9947481"
           x="354.85825"
           y="417.37079" /><rect
           y="435.37079"
           x="354.85825"
           height="8.9947481"
           width="195.6358"
           id="rect7781"
           style="opacity:1;fill:#ffffff;fill-opacity:1;stroke:#000000;stroke-width:0;stroke-linejoin:round;stroke-miterlimit:4;stroke-dasharray:none;stroke-opacity:1" /><rect
           y="453.37079"
           x="354.85825"
           height="8.9947481"
           width="195.6358"
           id="rect7783"
           style="opacity:1;fill:#ffffff;fill-opacity:1;stroke:#000000;stroke-width:0;stroke-linejoin:round;stroke-miterlimit:4;stroke-dasharray:none;stroke-opacity:1" /><rect
           style="opacity:1;fill:#ffffff;fill-opacity:1;stroke:#000000;stroke-width:0;stroke-linejoin:round;stroke-miterlimit:4;stroke-dasharray:none;stroke-opacity:1"
           id="rect7785"
           width="195.6358"
           height="8.9947481"
           x="354.85825"
           y="471.37079" /><rect
           style="opacity:1;fill:#ffffff;fill-opacity:1;stroke:#000000;stroke-width:0;stroke-linejoin:round;stroke-miterlimit:4;stroke-dasharray:none;stroke-opacity:1"
           id="rect7787"
           width="195.6358"
           height="8.9947481"
           x="354.85825"
           y="489.37079" /><rect
           y="507.37079"
           x="354.85825"
           height="8.9947481"
           width="195.6358"
           id="rect7789"
           style="opacity:1;fill:#ffffff;fill-opacity:1;stroke:#000000;stroke-width:0;stroke-linejoin:round;stroke-miterlimit:4;stroke-dasharray:none;stroke-opacity:1" /><rect
           y="525.37079"
           x="354.85825"
           height="8.9947481"
           width="195.6358"
           id="rect7791"
           style="opacity:1;fill:#ffffff;fill-opacity:1;stroke:#000000;stroke-width:0;stroke-linejoin:round;stroke-miterlimit:4;stroke-dasharray:none;stroke-opacity:1" /><rect
           style="opacity:1;fill:#ffffff;fill-opacity:1;stroke:#000000;stroke-width:0;stroke-linejoin:round;stroke-miterlimit:4;stroke-dasharray:none;stroke-opacity:1"
           id="rect7793"
           width="195.6358"
           height="8.9947481"
           x="354.85825"
           y="543.37079" /><rect
           style="opacity:1;fill:#ffffff;fill-opacity:1;stroke:#000000;stroke-width:0;stroke-linejoin:round;stroke-miterlimit:4;stroke-dasharray:none;stroke-opacity:1"
           id="rect7795"
           width="195.6358"
           height="8.9947481"
           x="354.85825"
           y="561.37079" /><rect
           y="579.37079"
           x="354.85825"
           height="8.9947481"
           width="195.6358"
           id="rect7797"
           style="opacity:1;fill:#ffffff;fill-opacity:1;stroke:#000000;stroke-width:0;stroke-linejoin:round;stroke-miterlimit:4;stroke-dasharray:none;stroke-opacity:1" /><rect
           y="595.37079"
           x="354.85825"
           height="8.9947481"
           width="195.6358"
           id="rect7799"
           style="opacity:1;fill:#ffffff;fill-opacity:1;stroke:#000000;stroke-width:0;stroke-linejoin:round;stroke-miterlimit:4;stroke-dasharray:none;stroke-opacity:1" /><rect
           style="opacity:1;fill:#ffffff;fill-opacity:1;stroke:#000000;stroke-width:0;stroke-linejoin:round;stroke-miterlimit:4;stroke-dasharray:none;stroke-opacity:1"
           id="rect7801"
           width="195.6358"
           height="8.9947481"
           x="354.85825"
           y="613.37079" /><rect
           style="opacity:1;fill:#ffffff;fill-opacity:1;stroke:#000000;stroke-width:0;stroke-linejoin:round;stroke-miterlimit:4;stroke-dasharray:none;stroke-opacity:1"
           id="rect7803"
           width="195.6358"
           height="8.9947481"
           x="354.85825"
           y="629.37079" /><rect
           y="647.37079"
           x="354.85825"
           height="8.9947481"
           width="195.6358"
           id="rect7805"
           style="opacity:1;fill:#ffffff;fill-opacity:1;stroke:#000000;stroke-width:0;stroke-linejoin:round;stroke-miterlimit:4;stroke-dasharray:none;stroke-opacity:1" /><rect
           y="665.37079"
           x="354.85825"
           height="8.9947481"
           width="195.6358"
           id="rect7807"
           style="opacity:1;fill:#ffffff;fill-opacity:1;stroke:#000000;stroke-width:0;stroke-linejoin:round;stroke-miterlimit:4;stroke-dasharray:none;stroke-opacity:1" /><rect
           style="opacity:1;fill:#ffffff;fill-opacity:1;stroke:#000000;stroke-width:0;stroke-linejoin:round;stroke-miterlimit:4;stroke-dasharray:none;stroke-opacity:1"
           id="rect7809"
           width="195.6358"
           height="8.9947481"
           x="354.85825"
           y="683.37079" /><rect
           style="opacity:1;fill:#ffffff;fill-opacity:1;stroke:#000000;stroke-width:0;stroke-linejoin:round;stroke-miterlimit:4;stroke-dasharray:none;stroke-opacity:1"
           id="rect7811"
           width="195.6358"
           height="8.9947481"
           x="354.85825"
           y="701.37079" /><rect
           y="719.37079"
           x="354.85825"
           height="8.9947481"
           width="195.6358"
           id="rect7813"
           style="opacity:1;fill:#ffffff;fill-opacity:1;stroke:#000000;stroke-width:0;stroke-linejoin:round;stroke-miterlimit:4;stroke-dasharray:none;stroke-opacity:1" /><rect
           y="737.37079"
           x="354.85825"
           height="8.9947481"
           width="195.6358"
           id="rect7815"
           style="opacity:1;fill:#ffffff;fill-opacity:1;stroke:#000000;stroke-width:0;stroke-linejoin:round;stroke-miterlimit:4;stroke-dasharray:none;stroke-opacity:1" /><rect
           style="opacity:1;fill:#ffffff;fill-opacity:1;stroke:#000000;stroke-width:0;stroke-linejoin:round;stroke-miterlimit:4;stroke-dasharray:none;stroke-opacity:1"
           id="rect7817"
           width="195.6358"
           height="8.9947481"
           x="354.85825"
           y="755.37079" /><rect
           y="773.37079"
           x="354.85825"
           height="56.217167"
           width="195.63579"
           id="rect7819"
           style="opacity:1;fill:#ffffff;fill-opacity:1;stroke:#000000;stroke-width:0;stroke-linejoin:round;stroke-miterlimit:4;stroke-dasharray:none;stroke-opacity:1" /></g><g
         id="g7773"
         transform="matrix(0.8222462,0,0,0.75298228,865.25714,-329.18282)"><path
           style="opacity:1;fill:#ffffff;fill-opacity:1;stroke:#000000;stroke-width:0;stroke-linejoin:round;stroke-miterlimit:4;stroke-dasharray:none;stroke-opacity:1"
           id="path7771"
           sodipodi:type="arc"
           sodipodi:cx="336.9248"
           sodipodi:cy="607.50037"
           sodipodi:rx="43.849396"
           sodipodi:ry="43.849396"
           sodipodi:start="0"
           sodipodi:end="6.2671001"
           d="m 380.7742,607.50037 a 43.849396,43.849396 0 0 1 -43.67306,43.84904 43.849396,43.849396 0 0 1 -44.02431,-43.49638 43.849396,43.849396 0 0 1 43.31899,-44.19887 43.849396,43.849396 0 0 1 44.37271,43.14091"
           sodipodi:open="true" /><path
           sodipodi:open="true"
           d="m 375.53078,607.12207 a 38.227684,38.227684 0 0 1 -38.07395,38.22738 38.227684,38.227684 0 0 1 -38.38018,-37.91993 38.227684,38.227684 0 0 1 37.76529,-38.53235 38.227684,38.227684 0 0 1 38.6839,37.61003"
           sodipodi:end="6.2671001"
           sodipodi:start="0"
           sodipodi:ry="38.227684"
           sodipodi:rx="38.227684"
           sodipodi:cy="607.12207"
           sodipodi:cx="337.3031"
           sodipodi:type="arc"
           id="path7769"
           style="opacity:1;fill:#ff0000;fill-opacity:1;stroke:#000000;stroke-width:0;stroke-linejoin:round;stroke-miterlimit:4;stroke-dasharray:none;stroke-opacity:1" /></g></g><g
       id="g7993"
       transform="translate(165.72064,17.486878)"><rect
         style="opacity:1;fill:#10212b;fill-opacity:1;stroke:#000000;stroke-width:10;stroke-linejoin:round;stroke-miterlimit:4;stroke-dasharray:none;stroke-opacity:1"
         id="rect7981"
         width="278.83725"
         height="485.71649"
         x="148.41336"
         y="544.15881"
         ry="4.96457" /><rect
         style="opacity:1;fill:#424b52;fill-opacity:1;stroke:#000000;stroke-width:7.01468992;stroke-linejoin:round;stroke-miterlimit:4;stroke-dasharray:none;stroke-opacity:1"
         id="rect7983"
         width="277.32516"
         height="56.953808"
         x="147.40759"
         y="587.5769"
         ry="2.7334902" /><rect
         ry="2.7334902"
         y="679.5769"
         x="147.40759"
         height="56.953808"
         width="277.32516"
         id="rect7985"
         style="opacity:1;fill:#424b52;fill-opacity:1;stroke:#000000;stroke-width:7.01468992;stroke-linejoin:round;stroke-miterlimit:4;stroke-dasharray:none;stroke-opacity:1" /><rect
         style="opacity:1;fill:#424b52;fill-opacity:1;stroke:#000000;stroke-width:7.01468992;stroke-linejoin:round;stroke-miterlimit:4;stroke-dasharray:none;stroke-opacity:1"
         id="rect7987"
         width="277.32516"
         height="56.953808"
         x="147.40759"
         y="773.5769"
         ry="2.7334902" /><rect
         ry="2.7334902"
         y="867.5769"
         x="147.40759"
         height="56.953808"
         width="277.32516"
         id="rect7989"
         style="opacity:1;fill:#424b52;fill-opacity:1;stroke:#000000;stroke-width:7.01468992;stroke-linejoin:round;stroke-miterlimit:4;stroke-dasharray:none;stroke-opacity:1" /><rect
         style="opacity:1;fill:#424b52;fill-opacity:1;stroke:#000000;stroke-width:7.01468992;stroke-linejoin:round;stroke-miterlimit:4;stroke-dasharray:none;stroke-opacity:1"
         id="rect7991"
         width="277.32516"
         height="56.953808"
         x="147.40759"
         y="957.5769"
         ry="2.7334902" /></g><g
       transform="translate(1389.1012,17.486878)"
       id="g8034"><rect
         ry="4.96457"
         y="544.15881"
         x="148.41336"
         height="485.71649"
         width="278.83725"
         id="rect8036"
         style="opacity:1;fill:#10212b;fill-opacity:1;stroke:#000000;stroke-width:10;stroke-linejoin:round;stroke-miterlimit:4;stroke-dasharray:none;stroke-opacity:1" /><rect
         ry="2.7334902"
         y="587.5769"
         x="147.40759"
         height="56.953808"
         width="277.32516"
         id="rect8038"
         style="opacity:1;fill:#424b52;fill-opacity:1;stroke:#000000;stroke-width:7.01468992;stroke-linejoin:round;stroke-miterlimit:4;stroke-dasharray:none;stroke-opacity:1" /><rect
         style="opacity:1;fill:#424b52;fill-opacity:1;stroke:#000000;stroke-width:7.01468992;stroke-linejoin:round;stroke-miterlimit:4;stroke-dasharray:none;stroke-opacity:1"
         id="rect8040"
         width="277.32516"
         height="56.953808"
         x="147.40759"
         y="679.5769"
         ry="2.7334902" /><rect
         ry="2.7334902"
         y="773.5769"
         x="147.40759"
         height="56.953808"
         width="277.32516"
         id="rect8042"
         style="opacity:1;fill:#424b52;fill-opacity:1;stroke:#000000;stroke-width:7.01468992;stroke-linejoin:round;stroke-miterlimit:4;stroke-dasharray:none;stroke-opacity:1" /><rect
         style="opacity:1;fill:#424b52;fill-opacity:1;stroke:#000000;stroke-width:7.01468992;stroke-linejoin:round;stroke-miterlimit:4;stroke-dasharray:none;stroke-opacity:1"
         id="rect8044"
         width="277.32516"
         height="56.953808"
         x="147.40759"
         y="867.5769"
         ry="2.7334902" /><rect
         ry="2.7334902"
         y="957.5769"
         x="147.40759"
         height="56.953808"
         width="277.32516"
         id="rect8046"
         style="opacity:1;fill:#424b52;fill-opacity:1;stroke:#000000;stroke-width:7.01468992;stroke-linejoin:round;stroke-miterlimit:4;stroke-dasharray:none;stroke-opacity:1" /></g><g
       transform="translate(30.799343,0)"
       id="g8112"><g
         id="g7971"
         transform="matrix(1.2735838,0,0,1.0696274,-758.69743,-75.97113)"><rect
           y="219.74782"
           x="830.67896"
           height="82.338165"
           width="200.55545"
           id="rect7947"
           style="opacity:1;fill:#979fb2;fill-opacity:1;stroke:#000000;stroke-width:9.57775402;stroke-linejoin:round;stroke-miterlimit:4;stroke-dasharray:none;stroke-opacity:1" /><rect
           style="opacity:1;fill:#979fb2;fill-opacity:1;stroke:#000000;stroke-width:9.57775402;stroke-linejoin:round;stroke-miterlimit:4;stroke-dasharray:none;stroke-opacity:1"
           id="rect7951"
           width="200.55545"
           height="82.338165"
           x="830.67896"
           y="327.49924" /></g><rect
         style="opacity:1;fill:#424b52;fill-opacity:1;stroke:#000000;stroke-width:10;stroke-linejoin:round;stroke-miterlimit:4;stroke-dasharray:none;stroke-opacity:1"
         id="rect8076"
         width="134.92125"
         height="125.92649"
         x="272.73227"
         y="195.36337"
         ry="2.73349" /></g><g
       id="g7636"
       transform="matrix(1.4933915,0,0,1.4933915,556.12328,-63.71962)"><path
         style="opacity:1;fill:#ed1c24;fill-opacity:1;stroke:#000000;stroke-width:0;stroke-linejoin:round;stroke-miterlimit:4;stroke-dasharray:none;stroke-opacity:1"
         d="m 565.89984,498.06511 a 54.530581,54.530581 0 0 0 -53.87043,54.9655 54.530581,54.530581 0 0 0 54.74783,54.09075 54.530581,54.530581 0 0 0 54.31249,-54.53011 l -0.008,-0.8774 a 54.530581,54.530581 0 0 0 -55.18162,-53.64874 z m -29.48611,31.67355 38.00209,0 c 1.39203,0 2.71492,0.32669 3.96776,0.9822 1.25283,0.60089 2.34239,1.44831 3.27041,2.54082 0.97442,1.0379 1.74081,2.29401 2.29763,3.7689 0.6032,1.42028 0.90426,2.94974 0.90426,4.58852 l 0,35.23421 -15.10382,0 0,-14.0934 -28.6759,0 0,14.0934 -15.17236,0 0,-34.74243 c 0,-1.69341 0.27758,-3.27755 0.8344,-4.75245 0.55681,-1.52953 1.29973,-2.84031 2.22775,-3.93282 0.97443,-1.14715 2.08745,-2.04924 3.34029,-2.70475 1.29922,-0.65551 2.66905,-0.9822 4.10749,-0.9822 z m 55.55671,0 15.24356,0 0,47.11465 -15.24356,0 0,-47.11465 z m -50.89428,11.71652 0,10.32451 28.6759,0 0,-10.32451 -28.6759,0 z"
         id="path7598"
         inkscape:connector-curvature="0" /><text
         xml:space="preserve"
         style="font-style:normal;font-weight:normal;font-size:38.19896698px;line-height:1000%;font-family:sans-serif;letter-spacing:0px;word-spacing:0px;fill:#000000;fill-opacity:1;stroke:none;stroke-width:1px;stroke-linecap:butt;stroke-linejoin:miter;stroke-opacity:1"
         x="56.551613"
         y="549.95935"
         id="text7618"
         sodipodi:linespacing="1000%"
         transform="scale(0.9549742,1.0471487)"><tspan
           sodipodi:role="line"
           id="tspan7620"
           x="56.551613"
           y="549.95935"
           style="font-style:normal;font-variant:normal;font-weight:normal;font-stretch:normal;font-size:76.39793396px;font-family:Gunship;-inkscape-font-specification:Gunship;fill:#000000">Alfred</tspan></text>
<path
         style="opacity:1;fill:#000000;fill-opacity:1;stroke:#000000;stroke-width:0;stroke-linejoin:round;stroke-miterlimit:4;stroke-dasharray:none;stroke-opacity:1"
         id="path7622"
         sodipodi:type="arc"
         sodipodi:cx="488.27866"
         sodipodi:cy="552.59143"
         sodipodi:rx="11.805609"
         sodipodi:ry="11.805609"
         sodipodi:start="0"
         sodipodi:end="6.2670934"
         sodipodi:open="true"
         d="m 500.08426,552.59143 a 11.805609,11.805609 0 0 1 -11.75811,11.80551 11.805609,11.805609 0 0 1 -11.85272,-11.71052 11.805609,11.805609 0 0 1 11.66275,-11.89974 11.805609,11.805609 0 0 1 11.94656,11.61478" /></g><g
       transform="translate(545.101,-53.094254)"
       id="g7331"><g
         id="g7085"
         transform="matrix(-1.2745656,0.52053181,0.52053181,1.2745656,1208.5715,-267.65463)"><path
           id="path3"
           d="m 440.878,9.988 -337.418,0 -22.832,21.786 0,450.345 368.812,-19.099 0,-444.47 c 0,-4.73 -3.832,-8.562 -8.562,-8.562 z"
           style="fill:#f14742"
           inkscape:connector-curvature="0" /><path
           id="path5"
           d="m 103.46,9.988 0,472.131 -40.9,1.827 0,-453.033 c 0,-11.553 9.373,-20.925 20.925,-20.925 0,0 19.975,0 19.975,0 z"
           style="fill:#cd3f39"
           inkscape:connector-curvature="0" /><circle
           id="circle7"
           r="69.249001"
           cy="247.464"
           cx="272.168"
           style="fill:#fad4c6" /><path
           id="path9-3"
           d="m 272.171,357.809 c -46.492,0 -86.269,28.648 -102.708,69.246 l 205.417,0 C 358.44,386.457 318.663,357.809 272.171,357.809 Z"
           style="fill:#f99d88"
           inkscape:connector-curvature="0" /><path
           id="path11"
           d="m 92.047,463.014 c -11.558,0 -20.927,9.369 -20.927,20.927 0,11.558 9.369,20.927 20.927,20.927 l 348.831,0 0,-41.852 -348.831,0 0,-0.002 z"
           style="fill:#fff1cd"
           inkscape:connector-curvature="0" /><path
           id="path13"
           d="m 349.979,247.299 c 0,-42.902 -34.904,-77.807 -77.808,-77.807 -42.902,0 -77.807,34.904 -77.807,77.807 0,42.904 34.904,77.808 77.807,77.808 42.903,0 77.808,-34.905 77.808,-77.808 z m -138.491,0 c 0,-33.461 27.223,-60.683 60.683,-60.683 33.46,0 60.684,27.223 60.684,60.683 0,33.46 -27.224,60.684 -60.684,60.684 -33.46,0 -60.683,-27.223 -60.683,-60.684 z"
           inkscape:connector-curvature="0" /><path
           id="path15"
           d="m 297.811,272.939 c 3.344,-3.345 3.344,-8.765 0,-12.109 -3.345,-3.343 -8.765,-3.343 -12.109,0 -7.46,7.463 -19.601,7.463 -27.062,0 -3.345,-3.343 -8.765,-3.343 -12.109,0 -3.344,3.345 -3.344,8.765 0,12.109 6.84,6.839 15.947,10.607 25.64,10.607 9.693,0 18.8,-3.768 25.64,-10.607 z"
           inkscape:connector-curvature="0" /><path
           id="path17"
           d="m 272.171,349.53 c -48.866,0 -92.296,29.28 -110.645,74.595 -1.774,4.383 0.34,9.375 4.724,11.15 1.053,0.426 2.139,0.628 3.21,0.628 3.385,0 6.59,-2.022 7.94,-5.352 15.718,-38.815 52.918,-63.898 94.772,-63.898 41.854,0 79.055,25.082 94.773,63.899 1.775,4.381 6.761,6.497 11.151,4.723 4.383,-1.776 6.497,-6.767 4.723,-11.151 C 364.467,378.81 321.036,349.53 272.171,349.53 Z"
           inkscape:connector-curvature="0" /><path
           id="path19"
           d="m 195.758,115.856 c 3.275,3.017 8.32,3.017 11.597,0 l 29.505,-27.161 29.509,27.162 c 3.278,3.017 8.321,3.016 11.596,-0.001 l 29.507,-27.162 29.513,27.163 c 1.639,1.508 3.718,2.262 5.798,2.262 2.08,0 4.16,-0.753 5.798,-2.262 l 35.31,-32.5 c 3.48,-3.203 3.703,-8.619 0.501,-12.099 -3.204,-3.48 -8.618,-3.703 -12.099,-0.501 L 342.782,97.92 313.269,70.757 c -3.278,-3.017 -8.321,-3.016 -11.596,10e-4 L 272.166,97.92 242.658,70.757 c -3.278,-3.017 -8.32,-3.016 -11.598,10e-4 L 201.555,97.919 172.048,70.758 c -3.477,-3.204 -8.895,-2.978 -12.098,0.5 -3.203,3.478 -2.978,8.895 0.5,12.098 l 35.308,32.5 z"
           inkscape:connector-curvature="0" /><path
           id="path21"
           d="m 92.047,470.148 348.831,0 c 4.73,0 8.562,-3.832 8.562,-8.562 l 0,-453.024 C 449.44,3.832 445.608,0 440.878,0 L 92.047,0 C 75.787,0 62.56,13.229 62.56,29.489 l 0,453.023 c 0,16.26 13.228,29.489 29.487,29.489 l 348.831,0 c 4.73,0 8.562,-3.832 8.562,-8.562 0,-4.73 -3.832,-8.562 -8.562,-8.562 l -348.831,0 c -6.818,0 -12.364,-5.546 -12.364,-12.365 10e-4,-6.818 5.546,-12.364 12.364,-12.364 z M 79.684,29.489 c 0,-6.819 5.546,-12.365 12.364,-12.365 l 2.854,0 0,90.15 c 0,4.73 3.832,8.562 8.562,8.562 4.73,0 8.562,-3.832 8.562,-8.562 l 0,-90.15 320.291,0 0,435.9 -320.292,0 0,-311.502 c 0,-4.73 -3.832,-8.562 -8.562,-8.562 -4.73,0 -8.562,3.832 -8.562,8.562 l 0,311.502 -2.854,0 c -4.413,0 -8.601,0.981 -12.364,2.727 10e-4,0 10e-4,-426.262 10e-4,-426.262 z"
           inkscape:connector-curvature="0" /><g
           id="g23" /><g
           id="g25" /><g
           id="g27" /><g
           id="g29" /><g
           id="g31" /><g
           id="g33" /><g
           id="g35-6" /><g
           id="g37" /><g
           id="g39" /><g
           id="g41" /><g
           id="g43" /><g
           id="g45-7" /><g
           id="g47" /><g
           id="g49" /><g
           id="g51-5" /></g><g
         id="g8106"
         transform="matrix(0.91932611,-0.39349651,0.39349651,0.91932611,-411.61023,452.27051)"><g
           id="g7975"
           transform="matrix(1.2729995,0,0,1.0927211,454.82194,-85.48956)"><rect
             y="219.74782"
             x="830.67896"
             height="82.338165"
             width="200.55545"
             id="rect7977"
             style="opacity:1;fill:#979fb2;fill-opacity:1;stroke:#000000;stroke-width:9.57775402;stroke-linejoin:round;stroke-miterlimit:4;stroke-dasharray:none;stroke-opacity:1" /><rect
             style="opacity:1;fill:#979fb2;fill-opacity:1;stroke:#000000;stroke-width:9.57775402;stroke-linejoin:round;stroke-miterlimit:4;stroke-dasharray:none;stroke-opacity:1"
             id="rect7979"
             width="200.55545"
             height="82.338165"
             x="830.67896"
             y="327.49924" /></g><rect
           style="opacity:1;fill:#424b52;fill-opacity:1;stroke:#000000;stroke-width:10;stroke-linejoin:round;stroke-miterlimit:4;stroke-dasharray:none;stroke-opacity:1"
           id="rect8078"
           width="134.92125"
           height="125.92649"
           x="1656.7323"
           y="195.36337"
           ry="2.73349" /></g></g></g></svg>