<?xml version="1.0" encoding="UTF-8" standalone="no"?>
<!-- Created with Inkscape (http://www.inkscape.org/) -->

<svg
   xmlns:dc="http://purl.org/dc/elements/1.1/"
   xmlns:cc="http://creativecommons.org/ns#"
   xmlns:rdf="http://www.w3.org/1999/02/22-rdf-syntax-ns#"
   xmlns:svg="http://www.w3.org/2000/svg"
   xmlns="http://www.w3.org/2000/svg"
   xmlns:sodipodi="http://sodipodi.sourceforge.net/DTD/sodipodi-0.dtd"
   xmlns:inkscape="http://www.inkscape.org/namespaces/inkscape"
   width="600mm"
   height="600mm"
   viewBox="0 0 2125.9843 2125.9842"
   id="svg2"
   version="1.1"
   inkscape:version="0.91 r13725"
   sodipodi:docname="wallE-full.svg">
  <defs
     id="defs4" />
  <sodipodi:namedview
     id="base"
     pagecolor="#ffffff"
     bordercolor="#666666"
     borderopacity="1.0"
     inkscape:pageopacity="0.0"
     inkscape:pageshadow="2"
     inkscape:zoom="0.22235194"
     inkscape:cx="935.54634"
     inkscape:cy="927.95992"
     inkscape:document-units="px"
     inkscape:current-layer="layer1"
     showgrid="false"
     inkscape:window-width="1366"
     inkscape:window-height="711"
     inkscape:window-x="0"
     inkscape:window-y="27"
     inkscape:window-maximized="1" />
  <metadata
     id="metadata7">
    <rdf:RDF>
      <cc:Work
         rdf:about="">
        <dc:format>image/svg+xml</dc:format>
        <dc:type
           rdf:resource="http://purl.org/dc/dcmitype/StillImage" />
        <dc:title></dc:title>
      </cc:Work>
    </rdf:RDF>
  </metadata>
  <g
     inkscape:label="Layer 1"
     inkscape:groupmode="layer"
     id="layer1"
     transform="translate(0,1073.6222)">
    <g
       id="g8118">
      <rect
         ry="2.73349"
         y="-517.22198"
         x="939.95135"
         height="593.6535"
         width="139.41862"
         id="rect8080"
         style="opacity:1;fill:#959cae;fill-opacity:1;stroke:#000000;stroke-width:10;stroke-linejoin:round;stroke-miterlimit:4;stroke-dasharray:none;stroke-opacity:1" />
      <g
         id="g7173"
         transform="matrix(2.3734922,0,0,2.3734922,308.02402,-736.95671)">
        <path
           style="opacity:1;fill:#a19aac;fill-opacity:1;stroke:#000000;stroke-width:2;stroke-linejoin:round;stroke-miterlimit:4;stroke-dasharray:none;stroke-opacity:1"
           d="m 255.99023,64.728516 c -1.34936,-0.05144 -2.80229,0.128134 -4.48828,0.5 -1.68598,0.371865 -3.60503,0.936025 -5.88672,1.654296 -8.90039,2.801851 -34.06975,11.273018 -57.7832,19.365235 -23.71345,8.092217 -45.97101,15.805483 -49.04492,17.089843 -1.91271,0.79919 -3.39352,1.48913 -4.53906,2.26172 -0.57277,0.38629 -1.0613,0.79324 -1.47852,1.24414 -0.41722,0.4509 -0.763,0.94675 -1.04883,1.50977 -0.57166,1.12603 -0.90463,2.52329 -1.0957,4.38281 -0.19107,1.85952 -0.24037,4.18126 -0.24414,7.15429 -0.004,3.10367 0.11641,6.18176 0.35156,9.21094 0.23516,3.02918 0.58434,6.00958 1.04297,8.91797 0.45863,2.9084 1.02501,5.74502 1.69141,8.48633 0.66639,2.74131 1.43256,5.38809 2.29101,7.91602 0.85845,2.52792 1.8109,4.93683 2.84571,7.20507 1.0348,2.26825 2.1522,4.39517 3.34765,6.35743 1.19546,1.96225 2.4682,3.75916 3.8086,5.36914 1.34039,1.60997 2.74912,3.03274 4.21875,4.24414 1.62718,1.34126 3.88873,2.93111 6.47851,4.59765 2.58979,1.66654 5.50697,3.40884 8.44922,5.0586 2.94225,1.64975 5.90919,3.20714 8.59375,4.49804 2.68456,1.29091 5.08757,2.31626 6.9043,2.90625 1.83629,0.59636 4.18472,0.92462 6.82617,1.01172 2.64145,0.0871 5.57575,-0.0667 8.58789,-0.43554 3.01214,-0.36887 6.10047,-0.95308 9.04883,-1.72461 2.94836,-0.77154 5.75691,-1.73065 8.20703,-2.85157 3.02215,-1.38358 6.18915,-3.02421 9.42578,-4.85937 3.23663,-1.83517 6.54203,-3.86467 9.83984,-6.02539 3.29782,-2.16072 6.58922,-4.45226 9.79493,-6.8125 3.2057,-2.36025 6.3268,-4.78892 9.28711,-7.22266 2.9603,-2.43374 5.75871,-4.8727 8.32031,-7.2539 2.5616,-2.38121 4.88688,-4.70557 6.89648,-6.90821 2.00961,-2.20263 3.7035,-4.2836 5.00781,-6.18164 1.30432,-1.89803 2.21834,-3.61267 2.66407,-5.08008 0.44537,-1.46627 0.9648,-5.82244 1.44336,-11.6582 0.47855,-5.83576 0.91622,-13.1511 1.19726,-20.53906 L 277.97266,81.25 270.81445,74.357422 c -3.48986,-3.359908 -6.07238,-5.723718 -8.34375,-7.269531 -1.13568,-0.772907 -2.19273,-1.3408 -3.24804,-1.726563 -1.05532,-0.385763 -2.10797,-0.589939 -3.23243,-0.632812 z"
           id="path7152"
           inkscape:connector-curvature="0" />
        <path
           style="opacity:1;fill:#a19aac;fill-opacity:1;stroke:#000000;stroke-width:2;stroke-linejoin:round;stroke-miterlimit:4;stroke-dasharray:none;stroke-opacity:1"
           d="m 335.89258,64.458984 c -0.11949,-0.0038 -0.2122,0.0019 -0.27735,0.01758 -0.96067,0.23108 -2.71566,1.216386 -4.76757,2.617188 -2.05192,1.400802 -4.40075,3.217098 -6.55274,5.111328 l -7.82226,6.886719 0.0156,26.267581 c 0,7.22365 0.20702,14.52657 0.53906,20.4746 0.33205,5.94804 0.78911,10.54119 1.28907,12.3418 0.2634,0.94871 0.66793,1.96554 1.20117,3.03906 0.53324,1.07353 1.19484,2.20283 1.97265,3.38086 1.55563,2.35607 3.57472,4.90248 5.95704,7.55469 2.38231,2.65221 5.12788,5.41141 8.13476,8.19727 3.00688,2.78585 6.27577,5.59847 9.70508,8.35546 3.42931,2.757 7.02031,5.45782 10.66992,8.02344 3.64962,2.56563 7.3576,4.99528 11.02539,7.20703 3.66779,2.21176 7.29351,4.20501 10.77735,5.90039 3.48383,1.69539 6.82607,3.09287 9.92382,4.10938 1.3371,0.43876 2.72393,0.79525 4.15235,1.07031 1.42841,0.27507 2.89776,0.4685 4.40039,0.58203 3.00524,0.22707 6.14234,0.13264 9.34179,-0.27343 3.19946,-0.40608 6.46192,-1.12263 9.71876,-2.14454 3.25683,-1.0219 6.50816,-2.34834 9.68554,-3.96875 l -0.006,0 c 3.39437,-1.73107 6.63829,-3.63038 9.66211,-5.63867 3.02382,-2.00829 5.82834,-4.12632 8.34375,-6.29297 2.51541,-2.16664 4.74219,-4.38175 6.61133,-6.58789 1.86914,-2.20613 3.37984,-4.40253 4.46484,-6.52929 0.9717,-1.90468 1.88861,-4.14822 2.73829,-6.62696 0.84967,-2.47873 1.63224,-5.19241 2.33593,-8.03711 0.7037,-2.8447 1.32758,-5.8197 1.86133,-8.82226 0.53376,-3.00256 0.97655,-6.03206 1.31641,-8.98438 0.33985,-2.95232 0.57722,-5.82751 0.69922,-8.52148 0.12199,-2.69398 0.12959,-5.20802 0.01,-7.43555 -0.11983,-2.22753 -0.36634,-4.16968 -0.75195,-5.72265 -0.38561,-1.55298 -0.91059,-2.7164 -1.58594,-3.38672 -0.45199,-0.44863 -2.62355,-1.43987 -6.0918,-2.83203 -3.46825,-1.39217 -8.23286,-3.18517 -13.87304,-5.23633 -11.28038,-4.102334 -26.06073,-9.238366 -40.96289,-14.269532 -14.90217,-5.031166 -29.92598,-9.956867 -41.69532,-13.640625 -5.88467,-1.841879 -10.95604,-3.37294 -14.79101,-4.451172 -3.83498,-1.078231 -6.43405,-1.704321 -7.375,-1.734375 z"
           id="path7150"
           inkscape:connector-curvature="0" />
        <path
           style="fill:#ffad01;fill-opacity:1;stroke:#000000;stroke-width:2;stroke-miterlimit:4;stroke-dasharray:none;stroke-opacity:1"
           d="m 259.13477,48.625 c -3.4803,0 -102.94673,33.120655 -130.94141,43.601562 -14.00144,5.241986 -15.49364,8.258368 -15.30469,30.949218 0.10329,12.40099 1.13303,21.83534 3.1211,28.57422 8.64977,29.31977 27.8006,49.91921 52.9375,56.9375 24.32229,6.79085 69.30256,-7.93481 104.76562,-34.29688 16.86276,-12.53523 20.59979,-14.53178 23.35352,-12.48632 38.57613,28.65293 64.12799,40.32574 97.04492,44.33789 25.62766,3.12367 41.88848,-1.75528 56.76953,-17.03321 15.20267,-15.60783 24.54572,-41.36864 25.46094,-69.80078 -0.003,-0.16064 0.003,-0.34589 0.0176,-0.54687 0.0242,-0.85199 0.0653,-1.69819 0.0742,-2.55469 0.19703,-18.964886 -1.04474,-21.797247 -11.07617,-25.27539 -29.84967,-10.349611 -127.6405,-41.348996 -132.49414,-42 -7.37983,-0.989862 -9.60407,0.285292 -25.25781,14.478516 C 294.33386,75.543188 295.98063,75.763991 276.04102,59.267578 268.09811,52.696215 261.63009,48.625 259.13477,48.625 Z m 76.75781,15.833984 c 7.52762,0.240432 121.17315,38.575026 124.78906,42.164066 5.40281,5.36261 1.1505,42.29974 -6.62305,57.53711 -4.34002,8.50704 -15.50457,18.12451 -29.08203,25.04882 l 0.006,0 c -12.70952,6.48162 -26.60203,8.2445 -37.29883,4.73438 -24.78202,-8.13205 -65.15275,-40.58824 -69.36718,-55.76758 -0.99991,-3.60123 -1.82813,-18.36909 -1.82813,-32.8164 l -0.0156,-26.267583 7.82226,-6.886719 c 4.30397,-3.78846 9.39897,-7.266357 11.32031,-7.728516 0.0652,-0.01567 0.15786,-0.02139 0.27735,-0.01758 z m -79.90235,0.269532 c 4.49782,0.171492 7.8445,2.909091 14.82422,9.628906 l 7.15821,6.892578 -1.02149,26.86719 c -0.56208,14.77593 -1.74988,29.26471 -2.64062,32.19726 -3.56583,11.73925 -37.05915,39.27511 -61.23633,50.34375 -9.80046,4.48365 -25.32473,6.38542 -32.66992,4 -7.26691,-2.35999 -23.91706,-11.6955 -30.42578,-17.06054 -11.75704,-9.69114 -19.62985,-32.87774 -19.59766,-57.70704 0.0151,-11.89216 0.7554,-13.35599 8.40625,-16.55273 6.14783,-2.56872 89.02733,-30.851376 106.82812,-36.455078 4.56338,-1.436542 7.67628,-2.257171 10.375,-2.154296 z"
           id="path7038"
           inkscape:connector-curvature="0" />
        <g
           id="g7160">
          <circle
             r="45.487259"
             cy="137.10307"
             cx="199.59322"
             id="path7154"
             style="opacity:1;fill:#000080;fill-opacity:1;stroke:#000000;stroke-width:1.97056246;stroke-linejoin:round;stroke-miterlimit:4;stroke-dasharray:none;stroke-opacity:1" />
          <circle
             r="40.265762"
             cy="137.45016"
             cx="199.24609"
             id="path7156"
             style="opacity:1;fill:#000000;fill-opacity:1;stroke:#000000;stroke-width:2;stroke-linejoin:round;stroke-miterlimit:4;stroke-dasharray:none;stroke-opacity:1" />
          <circle
             r="18.050169"
             cy="120.78848"
             cx="212.43661"
             id="path7158"
             style="opacity:1;fill:#ffffff;fill-opacity:1;stroke:#000000;stroke-width:2;stroke-linejoin:round;stroke-miterlimit:4;stroke-dasharray:none;stroke-opacity:1" />
        </g>
        <g
           id="g7165"
           transform="translate(196,0)">
          <circle
             style="opacity:1;fill:#000080;fill-opacity:1;stroke:#000000;stroke-width:1.97056246;stroke-linejoin:round;stroke-miterlimit:4;stroke-dasharray:none;stroke-opacity:1"
             id="circle7167"
             cx="199.59322"
             cy="137.10307"
             r="45.487259" />
          <circle
             style="opacity:1;fill:#000000;fill-opacity:1;stroke:#000000;stroke-width:2;stroke-linejoin:round;stroke-miterlimit:4;stroke-dasharray:none;stroke-opacity:1"
             id="circle7169"
             cx="199.24609"
             cy="137.45016"
             r="40.265762" />
          <circle
             style="opacity:1;fill:#ffffff;fill-opacity:1;stroke:#000000;stroke-width:2;stroke-linejoin:round;stroke-miterlimit:4;stroke-dasharray:none;stroke-opacity:1"
             id="circle7171"
             cx="212.43661"
             cy="120.78848"
             r="18.050169" />
        </g>
      </g>
      <rect
         ry="2.73349"
         y="-251.87688"
         x="901.47498"
         height="143.916"
         width="211.37662"
         id="rect8082"
         style="opacity:1;fill:#424b52;fill-opacity:1;stroke:#000000;stroke-width:10;stroke-linejoin:round;stroke-miterlimit:4;stroke-dasharray:none;stroke-opacity:1" />
      <rect
         transform="matrix(0.96189385,-0.27342314,0.54455967,0.8387221,0,0)"
         ry="1.810418"
         y="-415.43912"
         x="793.93494"
         height="29.786568"
         width="394.06152"
         id="rect8084"
         style="opacity:1;fill:#424b52;fill-opacity:1;stroke:#000000;stroke-width:8.02993298;stroke-linejoin:round;stroke-miterlimit:4;stroke-dasharray:none;stroke-opacity:1" />
      <rect
         style="opacity:1;fill:#424b52;fill-opacity:1;stroke:#000000;stroke-width:8.02993298;stroke-linejoin:round;stroke-miterlimit:4;stroke-dasharray:none;stroke-opacity:1"
         id="rect8086"
         width="394.06152"
         height="29.786568"
         x="-968.50238"
         y="-989.99139"
         ry="1.810418"
         transform="matrix(-0.96189385,-0.27342314,-0.54455967,0.8387221,0,0)" />
    </g>
    <g
       id="g8136">
      <rect
         ry="3.7382298"
         y="34.534637"
         x="575.64197"
         height="843.62775"
         width="917.02319"
         id="rect7047"
         style="opacity:1;fill:#ffad01;fill-opacity:1;stroke:#000000;stroke-width:7.86852551;stroke-linejoin:round;stroke-miterlimit:4;stroke-dasharray:none;stroke-opacity:1" />
      <rect
         ry="3.7382326"
         y="57.64772"
         x="600.88116"
         height="254.24397"
         width="866.54492"
         id="rect7049"
         style="opacity:1;fill:#959cae;fill-opacity:1;stroke:#000000;stroke-width:7.86852551;stroke-linejoin:round;stroke-miterlimit:4;stroke-dasharray:none;stroke-opacity:1" />
      <g
         id="g7729"
         transform="matrix(0.8222462,0,0,0.75298228,540.01598,-549.19895)">
        <path
           style="opacity:1;fill:#1a1a1a;fill-opacity:1;stroke:#000000;stroke-width:0;stroke-linejoin:round;stroke-miterlimit:4;stroke-dasharray:none;stroke-opacity:1"
           d="m 183.625,885.40625 0,166.95505 211.47852,0 0,-166.95505 -211.47852,0 z m 28.62109,35.55273 154.23633,0 0,23.84961 -154.23633,0 0,-23.84961 z m 0,36 154.23633,0 0,23.84961 -154.23633,0 0,-23.84961 z m 0,36 154.23633,0 0,23.84962 -154.23633,0 0,-23.84962 z"
           id="rect7606"
           inkscape:connector-curvature="0" />
        <path
           id="path7727"
           d="m 369.625,885.40625 0,166.95505 211.47852,0 0,-166.95505 -211.47852,0 z m 28.62109,35.55273 154.23633,0 0,23.84961 -154.23633,0 0,-23.84961 z m 0,36 154.23633,0 0,23.84961 -154.23633,0 0,-23.84961 z m 0,36 154.23633,0 0,23.84962 -154.23633,0 0,-23.84962 z"
           style="opacity:1;fill:#1a1a1a;fill-opacity:1;stroke:#000000;stroke-width:0;stroke-linejoin:round;stroke-miterlimit:4;stroke-dasharray:none;stroke-opacity:1"
           inkscape:connector-curvature="0" />
      </g>
      <g
         transform="matrix(0.68991251,0,0,0.44566556,959.91452,-95.80561)"
         id="g7821">
        <rect
           style="opacity:1;fill:#1a1a1a;fill-opacity:1;stroke:#000000;stroke-width:0;stroke-linejoin:round;stroke-miterlimit:4;stroke-dasharray:none;stroke-opacity:1"
           id="rect7767"
           width="400.26636"
           height="472.22437"
           x="179.89499"
           y="391.24811"
           ry="0" />
        <rect
           y="417.37079"
           x="354.85825"
           height="8.9947481"
           width="195.6358"
           id="rect7779"
           style="opacity:1;fill:#ffffff;fill-opacity:1;stroke:#000000;stroke-width:0;stroke-linejoin:round;stroke-miterlimit:4;stroke-dasharray:none;stroke-opacity:1" />
        <rect
           style="opacity:1;fill:#ffffff;fill-opacity:1;stroke:#000000;stroke-width:0;stroke-linejoin:round;stroke-miterlimit:4;stroke-dasharray:none;stroke-opacity:1"
           id="rect7781"
           width="195.6358"
           height="8.9947481"
           x="354.85825"
           y="435.37079" />
        <rect
           style="opacity:1;fill:#ffffff;fill-opacity:1;stroke:#000000;stroke-width:0;stroke-linejoin:round;stroke-miterlimit:4;stroke-dasharray:none;stroke-opacity:1"
           id="rect7783"
           width="195.6358"
           height="8.9947481"
           x="354.85825"
           y="453.37079" />
        <rect
           y="471.37079"
           x="354.85825"
           height="8.9947481"
           width="195.6358"
           id="rect7785"
           style="opacity:1;fill:#ffffff;fill-opacity:1;stroke:#000000;stroke-width:0;stroke-linejoin:round;stroke-miterlimit:4;stroke-dasharray:none;stroke-opacity:1" />
        <rect
           y="489.37079"
           x="354.85825"
           height="8.9947481"
           width="195.6358"
           id="rect7787"
           style="opacity:1;fill:#ffffff;fill-opacity:1;stroke:#000000;stroke-width:0;stroke-linejoin:round;stroke-miterlimit:4;stroke-dasharray:none;stroke-opacity:1" />
        <rect
           style="opacity:1;fill:#ffffff;fill-opacity:1;stroke:#000000;stroke-width:0;stroke-linejoin:round;stroke-miterlimit:4;stroke-dasharray:none;stroke-opacity:1"
           id="rect7789"
           width="195.6358"
           height="8.9947481"
           x="354.85825"
           y="507.37079" />
        <rect
           style="opacity:1;fill:#ffffff;fill-opacity:1;stroke:#000000;stroke-width:0;stroke-linejoin:round;stroke-miterlimit:4;stroke-dasharray:none;stroke-opacity:1"
           id="rect7791"
           width="195.6358"
           height="8.9947481"
           x="354.85825"
           y="525.37079" />
        <rect
           y="543.37079"
           x="354.85825"
           height="8.9947481"
           width="195.6358"
           id="rect7793"
           style="opacity:1;fill:#ffffff;fill-opacity:1;stroke:#000000;stroke-width:0;stroke-linejoin:round;stroke-miterlimit:4;stroke-dasharray:none;stroke-opacity:1" />
        <rect
           y="561.37079"
           x="354.85825"
           height="8.9947481"
           width="195.6358"
           id="rect7795"
           style="opacity:1;fill:#ffffff;fill-opacity:1;stroke:#000000;stroke-width:0;stroke-linejoin:round;stroke-miterlimit:4;stroke-dasharray:none;stroke-opacity:1" />
        <rect
           style="opacity:1;fill:#ffffff;fill-opacity:1;stroke:#000000;stroke-width:0;stroke-linejoin:round;stroke-miterlimit:4;stroke-dasharray:none;stroke-opacity:1"
           id="rect7797"
           width="195.6358"
           height="8.9947481"
           x="354.85825"
           y="579.37079" />
        <rect
           style="opacity:1;fill:#ffffff;fill-opacity:1;stroke:#000000;stroke-width:0;stroke-linejoin:round;stroke-miterlimit:4;stroke-dasharray:none;stroke-opacity:1"
           id="rect7799"
           width="195.6358"
           height="8.9947481"
           x="354.85825"
           y="595.37079" />
        <rect
           y="613.37079"
           x="354.85825"
           height="8.9947481"
           width="195.6358"
           id="rect7801"
           style="opacity:1;fill:#ffffff;fill-opacity:1;stroke:#000000;stroke-width:0;stroke-linejoin:round;stroke-miterlimit:4;stroke-dasharray:none;stroke-opacity:1" />
        <rect
           y="629.37079"
           x="354.85825"
           height="8.9947481"
           width="195.6358"
           id="rect7803"
           style="opacity:1;fill:#ffffff;fill-opacity:1;stroke:#000000;stroke-width:0;stroke-linejoin:round;stroke-miterlimit:4;stroke-dasharray:none;stroke-opacity:1" />
        <rect
           style="opacity:1;fill:#ffffff;fill-opacity:1;stroke:#000000;stroke-width:0;stroke-linejoin:round;stroke-miterlimit:4;stroke-dasharray:none;stroke-opacity:1"
           id="rect7805"
           width="195.6358"
           height="8.9947481"
           x="354.85825"
           y="647.37079" />
        <rect
           style="opacity:1;fill:#ffffff;fill-opacity:1;stroke:#000000;stroke-width:0;stroke-linejoin:round;stroke-miterlimit:4;stroke-dasharray:none;stroke-opacity:1"
           id="rect7807"
           width="195.6358"
           height="8.9947481"
           x="354.85825"
           y="665.37079" />
        <rect
           y="683.37079"
           x="354.85825"
           height="8.9947481"
           width="195.6358"
           id="rect7809"
           style="opacity:1;fill:#ffffff;fill-opacity:1;stroke:#000000;stroke-width:0;stroke-linejoin:round;stroke-miterlimit:4;stroke-dasharray:none;stroke-opacity:1" />
        <rect
           y="701.37079"
           x="354.85825"
           height="8.9947481"
           width="195.6358"
           id="rect7811"
           style="opacity:1;fill:#ffffff;fill-opacity:1;stroke:#000000;stroke-width:0;stroke-linejoin:round;stroke-miterlimit:4;stroke-dasharray:none;stroke-opacity:1" />
        <rect
           style="opacity:1;fill:#ffffff;fill-opacity:1;stroke:#000000;stroke-width:0;stroke-linejoin:round;stroke-miterlimit:4;stroke-dasharray:none;stroke-opacity:1"
           id="rect7813"
           width="195.6358"
           height="8.9947481"
           x="354.85825"
           y="719.37079" />
        <rect
           style="opacity:1;fill:#ffffff;fill-opacity:1;stroke:#000000;stroke-width:0;stroke-linejoin:round;stroke-miterlimit:4;stroke-dasharray:none;stroke-opacity:1"
           id="rect7815"
           width="195.6358"
           height="8.9947481"
           x="354.85825"
           y="737.37079" />
        <rect
           y="755.37079"
           x="354.85825"
           height="8.9947481"
           width="195.6358"
           id="rect7817"
           style="opacity:1;fill:#ffffff;fill-opacity:1;stroke:#000000;stroke-width:0;stroke-linejoin:round;stroke-miterlimit:4;stroke-dasharray:none;stroke-opacity:1" />
        <rect
           style="opacity:1;fill:#ffffff;fill-opacity:1;stroke:#000000;stroke-width:0;stroke-linejoin:round;stroke-miterlimit:4;stroke-dasharray:none;stroke-opacity:1"
           id="rect7819"
           width="195.63579"
           height="56.217167"
           x="354.85825"
           y="773.37079" />
      </g>
      <g
         transform="matrix(0.8222462,0,0,0.75298228,865.25714,-329.18282)"
         id="g7773">
        <path
           sodipodi:open="true"
           d="m 380.7742,607.50037 a 43.849396,43.849396 0 0 1 -43.67306,43.84904 43.849396,43.849396 0 0 1 -44.02431,-43.49638 43.849396,43.849396 0 0 1 43.31899,-44.19887 43.849396,43.849396 0 0 1 44.37271,43.14091"
           sodipodi:end="6.2671001"
           sodipodi:start="0"
           sodipodi:ry="43.849396"
           sodipodi:rx="43.849396"
           sodipodi:cy="607.50037"
           sodipodi:cx="336.9248"
           sodipodi:type="arc"
           id="path7771"
           style="opacity:1;fill:#ffffff;fill-opacity:1;stroke:#000000;stroke-width:0;stroke-linejoin:round;stroke-miterlimit:4;stroke-dasharray:none;stroke-opacity:1" />
        <path
           style="opacity:1;fill:#ff0000;fill-opacity:1;stroke:#000000;stroke-width:0;stroke-linejoin:round;stroke-miterlimit:4;stroke-dasharray:none;stroke-opacity:1"
           id="path7769"
           sodipodi:type="arc"
           sodipodi:cx="337.3031"
           sodipodi:cy="607.12207"
           sodipodi:rx="38.227684"
           sodipodi:ry="38.227684"
           sodipodi:start="0"
           sodipodi:end="6.2671001"
           d="m 375.53078,607.12207 a 38.227684,38.227684 0 0 1 -38.07395,38.22738 38.227684,38.227684 0 0 1 -38.38018,-37.91993 38.227684,38.227684 0 0 1 37.76529,-38.53235 38.227684,38.227684 0 0 1 38.6839,37.61003"
           sodipodi:open="true" />
      </g>
    </g>
    <g
       transform="translate(134.9213,17.486878)"
       id="g7993">
      <rect
         ry="4.96457"
         y="544.15881"
         x="148.41336"
         height="485.71649"
         width="278.83725"
         id="rect7981"
         style="opacity:1;fill:#10212b;fill-opacity:1;stroke:#000000;stroke-width:10;stroke-linejoin:round;stroke-miterlimit:4;stroke-dasharray:none;stroke-opacity:1" />
      <rect
         ry="2.7334902"
         y="587.5769"
         x="147.40759"
         height="56.953808"
         width="277.32516"
         id="rect7983"
         style="opacity:1;fill:#424b52;fill-opacity:1;stroke:#000000;stroke-width:7.01468992;stroke-linejoin:round;stroke-miterlimit:4;stroke-dasharray:none;stroke-opacity:1" />
      <rect
         style="opacity:1;fill:#424b52;fill-opacity:1;stroke:#000000;stroke-width:7.01468992;stroke-linejoin:round;stroke-miterlimit:4;stroke-dasharray:none;stroke-opacity:1"
         id="rect7985"
         width="277.32516"
         height="56.953808"
         x="147.40759"
         y="679.5769"
         ry="2.7334902" />
      <rect
         ry="2.7334902"
         y="773.5769"
         x="147.40759"
         height="56.953808"
         width="277.32516"
         id="rect7987"
         style="opacity:1;fill:#424b52;fill-opacity:1;stroke:#000000;stroke-width:7.01468992;stroke-linejoin:round;stroke-miterlimit:4;stroke-dasharray:none;stroke-opacity:1" />
      <rect
         style="opacity:1;fill:#424b52;fill-opacity:1;stroke:#000000;stroke-width:7.01468992;stroke-linejoin:round;stroke-miterlimit:4;stroke-dasharray:none;stroke-opacity:1"
         id="rect7989"
         width="277.32516"
         height="56.953808"
         x="147.40759"
         y="867.5769"
         ry="2.7334902" />
      <rect
         ry="2.7334902"
         y="957.5769"
         x="147.40759"
         height="56.953808"
         width="277.32516"
         id="rect7991"
         style="opacity:1;fill:#424b52;fill-opacity:1;stroke:#000000;stroke-width:7.01468992;stroke-linejoin:round;stroke-miterlimit:4;stroke-dasharray:none;stroke-opacity:1" />
    </g>
    <g
       id="g8034"
       transform="translate(1358.3019,17.486878)">
      <rect
         style="opacity:1;fill:#10212b;fill-opacity:1;stroke:#000000;stroke-width:10;stroke-linejoin:round;stroke-miterlimit:4;stroke-dasharray:none;stroke-opacity:1"
         id="rect8036"
         width="278.83725"
         height="485.71649"
         x="148.41336"
         y="544.15881"
         ry="4.96457" />
      <rect
         style="opacity:1;fill:#424b52;fill-opacity:1;stroke:#000000;stroke-width:7.01468992;stroke-linejoin:round;stroke-miterlimit:4;stroke-dasharray:none;stroke-opacity:1"
         id="rect8038"
         width="277.32516"
         height="56.953808"
         x="147.40759"
         y="587.5769"
         ry="2.7334902" />
      <rect
         ry="2.7334902"
         y="679.5769"
         x="147.40759"
         height="56.953808"
         width="277.32516"
         id="rect8040"
         style="opacity:1;fill:#424b52;fill-opacity:1;stroke:#000000;stroke-width:7.01468992;stroke-linejoin:round;stroke-miterlimit:4;stroke-dasharray:none;stroke-opacity:1" />
      <rect
         style="opacity:1;fill:#424b52;fill-opacity:1;stroke:#000000;stroke-width:7.01468992;stroke-linejoin:round;stroke-miterlimit:4;stroke-dasharray:none;stroke-opacity:1"
         id="rect8042"
         width="277.32516"
         height="56.953808"
         x="147.40759"
         y="773.5769"
         ry="2.7334902" />
      <rect
         ry="2.7334902"
         y="867.5769"
         x="147.40759"
         height="56.953808"
         width="277.32516"
         id="rect8044"
         style="opacity:1;fill:#424b52;fill-opacity:1;stroke:#000000;stroke-width:7.01468992;stroke-linejoin:round;stroke-miterlimit:4;stroke-dasharray:none;stroke-opacity:1" />
      <rect
         style="opacity:1;fill:#424b52;fill-opacity:1;stroke:#000000;stroke-width:7.01468992;stroke-linejoin:round;stroke-miterlimit:4;stroke-dasharray:none;stroke-opacity:1"
         id="rect8046"
         width="277.32516"
         height="56.953808"
         x="147.40759"
         y="957.5769"
         ry="2.7334902" />
    </g>
    <g
       id="g8112">
      <g
         transform="matrix(1.2735838,0,0,1.0696274,-758.69743,-75.97113)"
         id="g7971">
        <rect
           style="opacity:1;fill:#979fb2;fill-opacity:1;stroke:#000000;stroke-width:9.57775402;stroke-linejoin:round;stroke-miterlimit:4;stroke-dasharray:none;stroke-opacity:1"
           id="rect7947"
           width="200.55545"
           height="82.338165"
           x="830.67896"
           y="219.74782" />
        <rect
           y="327.49924"
           x="830.67896"
           height="82.338165"
           width="200.55545"
           id="rect7951"
           style="opacity:1;fill:#979fb2;fill-opacity:1;stroke:#000000;stroke-width:9.57775402;stroke-linejoin:round;stroke-miterlimit:4;stroke-dasharray:none;stroke-opacity:1" />
      </g>
      <rect
         ry="2.73349"
         y="195.36337"
         x="272.73227"
         height="125.92649"
         width="134.92125"
         id="rect8076"
         style="opacity:1;fill:#424b52;fill-opacity:1;stroke:#000000;stroke-width:10;stroke-linejoin:round;stroke-miterlimit:4;stroke-dasharray:none;stroke-opacity:1" />
    </g>
    <g
       id="g8106">
      <g
         id="g7975"
         transform="matrix(1.2729995,0,0,1.0927211,454.82194,-85.48956)">
        <rect
           y="219.74782"
           x="830.67896"
           height="82.338165"
           width="200.55545"
           id="rect7977"
           style="opacity:1;fill:#979fb2;fill-opacity:1;stroke:#000000;stroke-width:9.57775402;stroke-linejoin:round;stroke-miterlimit:4;stroke-dasharray:none;stroke-opacity:1" />
        <rect
           style="opacity:1;fill:#979fb2;fill-opacity:1;stroke:#000000;stroke-width:9.57775402;stroke-linejoin:round;stroke-miterlimit:4;stroke-dasharray:none;stroke-opacity:1"
           id="rect7979"
           width="200.55545"
           height="82.338165"
           x="830.67896"
           y="327.49924" />
      </g>
      <rect
         style="opacity:1;fill:#424b52;fill-opacity:1;stroke:#000000;stroke-width:10;stroke-linejoin:round;stroke-miterlimit:4;stroke-dasharray:none;stroke-opacity:1"
         id="rect8078"
         width="134.92125"
         height="125.92649"
         x="1656.7323"
         y="195.36337"
         ry="2.73349" />
    </g>
    <g
       id="g3"
       transform="matrix(1.1230696,0,0,1.1230696,692.00867,305.09468)">
      <path
         stroke-miterlimit="22.9256"
         d="m -37.879,431.939 102.923,0 c 10.608,0 19.288,-8.68 19.288,-19.287 l 0,-53.527 -24.464,0 0,53.311 -24.079,0 0,-53.311 -24.464,0 0,53.311 -24.079,0 0,-53.311 -25.139,0 0,53.527 0.014,19.287 0,0 z"
         id="path5"
         inkscape:connector-curvature="0"
         style="clip-rule:evenodd;fill-rule:evenodd;stroke:#000000;stroke-width:0.21600001;stroke-miterlimit:22.92560005" />
      <path
         stroke-miterlimit="22.9256"
         d="m 214.791,430.639 0,-52.66 c 0,-10.608 -8.68,-19.287 -19.287,-19.287 l -61.545,0 c -10.608,0 -19.288,8.679 -19.288,19.287 l 0,52.66 26.656,0 0,-21.232 48.325,0 0,21.232 25.139,0 0,0 z m -73.464,-36.672 48.325,0 0,-18.749 -48.325,0 0,18.749 0,0 z"
         id="path7"
         inkscape:connector-curvature="0"
         style="clip-rule:evenodd;fill-rule:evenodd;stroke:#000000;stroke-width:0.21600001;stroke-miterlimit:22.92560005" />
      <polygon
         stroke-miterlimit="22.9256"
         points="273.107,429.951 247.565,429.951 247.565,413.5 247.565,358.231 247.565,358.231 273.107,358.231 273.107,413.5 339.889,413.5 339.889,429.951 "
         id="polygon9"
         style="clip-rule:evenodd;fill-rule:evenodd;stroke:#000000;stroke-width:0.21600001;stroke-miterlimit:22.92560005" />
      <polygon
         stroke-miterlimit="22.9256"
         points="388.777,429.951 363.236,429.951 363.236,413.5 363.236,358.231 363.236,358.231 388.777,358.231 388.777,413.5 455.561,413.5 455.561,429.951 "
         id="polygon11"
         style="clip-rule:evenodd;fill-rule:evenodd;stroke:#000000;stroke-width:0.21600001;stroke-miterlimit:22.92560005" />
      <path
         stroke-miterlimit="22.9256"
         d="m 481.904,381.271 c 7.299,0 13.219,5.919 13.219,13.219 0,7.3 -5.92,13.218 -13.219,13.218 -7.301,0 -13.219,-5.918 -13.219,-13.218 10e-4,-7.299 5.919,-13.219 13.219,-13.219 l 0,0 z"
         id="path13"
         inkscape:connector-curvature="0"
         style="clip-rule:evenodd;fill-rule:evenodd;stroke:#000000;stroke-width:0.21600001;stroke-miterlimit:22.92560005" />
      <path
         d="m 581.055,328 c 37.801,0 68.453,30.653 68.453,68.452 0,37.8 -30.652,68.454 -68.453,68.454 -37.799,0 -68.453,-30.654 -68.453,-68.454 0,-37.799 30.654,-68.452 68.453,-68.452 l 0,0 z m 45.183,31.948 -76.266,0 c -10.609,0 -19.289,8.68 -19.289,19.287 l 0,31.032 c 0,10.607 8.682,19.287 19.289,19.287 l 76.266,0 0,-16.704 -70.215,0 0,-11.479 64.754,0 0,-14.726 -64.754,0 0,-11.478 70.215,0 0,-15.219 0,0 z"
         id="path15"
         inkscape:connector-curvature="0"
         style="clip-rule:evenodd;fill:#ed1c24;fill-rule:evenodd" />
    </g>
  </g>
</svg>
